module gitlab.com/akingscote-personal/vue-and-go-captcha

go 1.16

require (
	github.com/mitchellh/go-homedir v1.1.0
	github.com/sirupsen/logrus v1.8.1
	github.com/spf13/cobra v1.2.1
	github.com/spf13/viper v1.8.1
)
